no_rekening,nominal
515400023695    ,53539
515400023741    ,226054
515400023766    ,295978
515400026939    ,46882
515400026954    ,197798
515400041520    ,47674
515400047772    ,239439
515400048518    ,270670
515400060660    ,120463
515400060678    ,200772
515400060694    ,130874
515400060708    ,108566
515400061240    ,266209
515400082614    ,208207
515400108671    ,62462
515400111400    ,98247
515400112970    ,111540
515400116739    ,214157
515400124024    ,52850
515400226560    ,184413
515400254398    ,257286
515400329096    ,154669
515400340219    ,53539
515400350283    ,163592
515400352453    ,77556
515400361904    ,280609
515400447222    ,68844
515400454671    ,59488
515400653474    ,182926
515400766096    ,53539
515400865616    ,108566
515401206526    ,151694
515401279128    ,200137
515401315201    ,139797
515401411546    ,264722
515401503181    ,166566
515401503199    ,175490
515401535021    ,279619
515401547630    ,23447
515401549721    ,130874
515401642013    ,119437
515401647023    ,103297
515401692578    ,126412
515402084739    ,2286594
